{
  "project_info": {
    "project_number": "1050873025782",
    "project_id": "so-far-360a7",
    "storage_bucket": "so-far-360a7.appspot.com"
  },
  "client": [
    {
      "client_info": {
        "mobilesdk_app_id": "1:1050873025782:android:d1970be23a78f9c02148d7",
        "android_client_info": {
          "package_name": "io.sofar.app"
        }
      },
      "oauth_client": [
        {
          "client_id": "1050873025782-a3p7kp980jtnk8ub40dogf865tk7j840.apps.googleusercontent.com",
          "client_type": 3
        }
      ],
      "api_key": [
        {
          "current_key": "AIzaSyCeGxFNnbj-o7MLpEldOFLQTehPmCk-PB0"
        }
      ],
      "services": {
        "appinvite_service": {
          "other_platform_oauth_client": [
            {
              "client_id": "1050873025782-a3p7kp980jtnk8ub40dogf865tk7j840.apps.googleusercontent.com",
              "client_type": 3
            }
          ]
        }
      }
    }
  ],
  "configuration_version": "1"
}